#Command:  
^C:\DEVELOPMENT\SIRIUS\SRC\CMAKEFILES\3.5.0-RC3\COMPILERIDC\DEBUG\CMAKECCOMPILERID.OBJ
C:\USERS\SPO1LER\APPDATA\LOCAL\MICROSOFT\APPLICATIONINSIGHTS\VSTELAIF-312CBD79-9DBB-4C48-A7DA-3CC2A931CB70\28A4C933B56F4BE4B2CAB49259289992.TMP
