#Command:  
^C:\DEVELOPMENT\SIRIUS\SRC\CMAKEFILES\3.5.0-RC3\COMPILERIDC\DEBUG\CMAKECCOMPILERID.OBJ
C:\USERS\SPO1LER\APPDATA\LOCAL\MICROSOFT\APPLICATIONINSIGHTS\VSTELAIF-312CBD79-9DBB-4C48-A7DA-3CC2A931CB70\EEE14257CC3C4858925696AF1C7FAAC9.TMP
